\select@language {english}
\contentsline {chapter}{\numberline {1}Account package}{1}{chapter.1}
\contentsline {section}{\numberline {1.1}Views of account}{1}{section.1.1}
\contentsline {chapter}{\numberline {2}Book package}{3}{chapter.2}
\contentsline {section}{\numberline {2.1}Views of book}{3}{section.2.1}
\contentsline {chapter}{\numberline {3}Transaction package}{7}{chapter.3}
\contentsline {section}{\numberline {3.1}Views of transaction}{7}{section.3.1}
\contentsline {chapter}{Python Module Index}{11}{section*.46}
\contentsline {chapter}{Index}{13}{section*.47}
