\relax 
\providecommand\hyper@newdestlabel[2]{}
\providecommand\HyperFirstAtBeginDocument{\AtBeginDocument}
\HyperFirstAtBeginDocument{\ifx\hyper@anchor\@undefined
\global\let\oldcontentsline\contentsline
\gdef\contentsline#1#2#3#4{\oldcontentsline{#1}{#2}{#3}}
\global\let\oldnewlabel\newlabel
\gdef\newlabel#1#2{\newlabelxx{#1}#2}
\gdef\newlabelxx#1#2#3#4#5#6{\oldnewlabel{#1}{{#2}{#3}}}
\AtEndDocument{\ifx\hyper@anchor\@undefined
\let\contentsline\oldcontentsline
\let\newlabel\oldnewlabel
\fi}
\fi}
\global\let\hyper@last\relax 
\gdef\HyperFirstAtBeginDocument#1{#1}
\providecommand\HyField@AuxAddToFields[1]{}
\providecommand\HyField@AuxAddToCoFields[2]{}
\select@language{english}
\@writefile{toc}{\select@language{english}}
\@writefile{lof}{\select@language{english}}
\@writefile{lot}{\select@language{english}}
\newlabel{index::doc}{{}{1}{}{section*.2}{}}
\@writefile{toc}{\contentsline {chapter}{\numberline {1}Account package}{1}{chapter.1}}
\@writefile{lof}{\addvspace {10\p@ }}
\@writefile{lot}{\addvspace {10\p@ }}
\newlabel{index:welcome-to-isd-library-s-documentation}{{1}{1}{Account package}{chapter.1}{}}
\newlabel{index:module-account}{{1}{1}{Account package}{chapter.1}{}}
\newlabel{index:account-package}{{1}{1}{Account package}{chapter.1}{}}
\@writefile{toc}{\contentsline {section}{\numberline {1.1}Views of account}{1}{section.1.1}}
\newlabel{index:module-account.views}{{1.1}{1}{Views of account}{section.1.1}{}}
\newlabel{index:views-of-account}{{1.1}{1}{Views of account}{section.1.1}{}}
\newlabel{index:module-account.views.IssueBorrowingCardView}{{1.1}{1}{Views of account}{section*.3}{}}
\newlabel{index:account.views.IssueBorrowingCardView.IssueBorrowingCardView}{{1.1}{1}{Views of account}{section*.4}{}}
\newlabel{index:account.views.IssueBorrowingCardView.IssueBorrowingCardView.get}{{1.1}{1}{Views of account}{section*.5}{}}
\newlabel{index:account.views.IssueBorrowingCardView.IssueBorrowingCardView.post}{{1.1}{1}{Views of account}{section*.6}{}}
\newlabel{index:account.views.IssueBorrowingCardView.IssueBorrowingCardView.post_stage_1_get_user_info}{{1.1}{1}{Views of account}{section*.7}{}}
\newlabel{index:account.views.IssueBorrowingCardView.IssueBorrowingCardView.post_stage_2_validate}{{1.1}{1}{Views of account}{section*.8}{}}
\newlabel{index:module-account.views.ActivateBorrowingCardView}{{1.1}{2}{Views of account}{section*.9}{}}
\newlabel{index:account.views.ActivateBorrowingCardView.ActivateBorrowingCardView}{{1.1}{2}{Views of account}{section*.10}{}}
\newlabel{index:account.views.ActivateBorrowingCardView.ActivateBorrowingCardView.get}{{1.1}{2}{Views of account}{section*.11}{}}
\newlabel{index:account.views.ActivateBorrowingCardView.ActivateBorrowingCardView.post}{{1.1}{2}{Views of account}{section*.12}{}}
\@writefile{toc}{\contentsline {chapter}{\numberline {2}Book package}{3}{chapter.2}}
\@writefile{lof}{\addvspace {10\p@ }}
\@writefile{lot}{\addvspace {10\p@ }}
\newlabel{index:book-package}{{2}{3}{Book package}{chapter.2}{}}
\newlabel{index:module-book}{{2}{3}{Book package}{chapter.2}{}}
\@writefile{toc}{\contentsline {section}{\numberline {2.1}Views of book}{3}{section.2.1}}
\newlabel{index:views-of-book}{{2.1}{3}{Views of book}{section.2.1}{}}
\newlabel{index:module-book.views}{{2.1}{3}{Views of book}{section.2.1}{}}
\newlabel{index:module-book.views.SearchView}{{2.1}{3}{Views of book}{section*.13}{}}
\newlabel{index:book.views.SearchView.SearchView}{{2.1}{3}{Views of book}{section*.14}{}}
\newlabel{index:book.views.SearchView.SearchView.get}{{2.1}{3}{Views of book}{section*.15}{}}
\newlabel{index:book.views.SearchView.SearchView.search}{{2.1}{3}{Views of book}{section*.16}{}}
\newlabel{index:module-book.views.RegisterView}{{2.1}{4}{Views of book}{section*.17}{}}
\newlabel{index:book.views.RegisterView.RegisterView}{{2.1}{4}{Views of book}{section*.18}{}}
\newlabel{index:book.views.RegisterView.RegisterView.get}{{2.1}{4}{Views of book}{section*.19}{}}
\newlabel{index:book.views.RegisterView.RegisterView.isbn_existed}{{2.1}{4}{Views of book}{section*.20}{}}
\newlabel{index:book.views.RegisterView.RegisterView.post}{{2.1}{4}{Views of book}{section*.21}{}}
\newlabel{index:book.views.RegisterView.RegisterView.post_stage_1_check_isbn}{{2.1}{4}{Views of book}{section*.22}{}}
\newlabel{index:book.views.RegisterView.RegisterView.post_stage_2_flow_1_register_book}{{2.1}{4}{Views of book}{section*.23}{}}
\newlabel{index:book.views.RegisterView.RegisterView.post_stage_2_flow_2_register_copy}{{2.1}{5}{Views of book}{section*.24}{}}
\@writefile{toc}{\contentsline {chapter}{\numberline {3}Transaction package}{7}{chapter.3}}
\@writefile{lof}{\addvspace {10\p@ }}
\@writefile{lot}{\addvspace {10\p@ }}
\newlabel{index:module-transaction}{{3}{7}{Transaction package}{chapter.3}{}}
\newlabel{index:transaction-package}{{3}{7}{Transaction package}{chapter.3}{}}
\@writefile{toc}{\contentsline {section}{\numberline {3.1}Views of transaction}{7}{section.3.1}}
\newlabel{index:module-transaction.views}{{3.1}{7}{Views of transaction}{section.3.1}{}}
\newlabel{index:views-of-transaction}{{3.1}{7}{Views of transaction}{section.3.1}{}}
\newlabel{index:module-transaction.views.AddToCartView}{{3.1}{7}{Views of transaction}{section*.25}{}}
\newlabel{index:transaction.views.AddToCartView.AddToCartView}{{3.1}{7}{Views of transaction}{section*.26}{}}
\newlabel{index:transaction.views.AddToCartView.AddToCartView.get}{{3.1}{7}{Views of transaction}{section*.27}{}}
\newlabel{index:transaction.views.AddToCartView.AddToCartView.post}{{3.1}{7}{Views of transaction}{section*.28}{}}
\newlabel{index:module-transaction.views.CheckOutView}{{3.1}{7}{Views of transaction}{section*.29}{}}
\newlabel{index:transaction.views.CheckOutView.CheckOutView}{{3.1}{7}{Views of transaction}{section*.30}{}}
\newlabel{index:transaction.views.CheckOutView.CheckOutView.get}{{3.1}{7}{Views of transaction}{section*.31}{}}
\newlabel{index:module-transaction.views.LentView}{{3.1}{8}{Views of transaction}{section*.32}{}}
\newlabel{index:transaction.views.LentView.LentView}{{3.1}{8}{Views of transaction}{section*.33}{}}
\newlabel{index:transaction.views.LentView.LentView.get}{{3.1}{8}{Views of transaction}{section*.34}{}}
\newlabel{index:transaction.views.LentView.LentView.post}{{3.1}{8}{Views of transaction}{section*.35}{}}
\newlabel{index:transaction.views.LentView.LentView.post_stage_1_show_borrowing_information}{{3.1}{8}{Views of transaction}{section*.36}{}}
\newlabel{index:transaction.views.LentView.LentView.post_stage_2_record_lent_information}{{3.1}{8}{Views of transaction}{section*.37}{}}
\newlabel{index:module-transaction.views.ReturnView}{{3.1}{8}{Views of transaction}{section*.38}{}}
\newlabel{index:transaction.views.ReturnView.ReturnView}{{3.1}{8}{Views of transaction}{section*.39}{}}
\newlabel{index:transaction.views.ReturnView.ReturnView.get}{{3.1}{9}{Views of transaction}{section*.40}{}}
\newlabel{index:transaction.views.ReturnView.ReturnView.post}{{3.1}{9}{Views of transaction}{section*.41}{}}
\newlabel{index:transaction.views.ReturnView.ReturnView.post_stage_1_search_lent_information}{{3.1}{9}{Views of transaction}{section*.42}{}}
\newlabel{index:transaction.views.ReturnView.ReturnView.post_stage_2_verify_lent_information}{{3.1}{9}{Views of transaction}{section*.43}{}}
\newlabel{index:transaction.views.ReturnView.ReturnView.post_stage_3_enter_compensation_percentage}{{3.1}{9}{Views of transaction}{section*.44}{}}
\newlabel{index:transaction.views.ReturnView.ReturnView.post_stage_4_verify}{{3.1}{10}{Views of transaction}{section*.45}{}}
\@writefile{toc}{\contentsline {chapter}{Python Module Index}{11}{section*.46}}
\@writefile{toc}{\contentsline {chapter}{Index}{13}{section*.47}}
